build/verilate/Testbench.vcd
$version Generated by VerilatedVcd $end
$timescale 10ps $end
 $scope module $rootio $end
 $upscope $end
 $scope module Testbench $end
  $var wire 1 1 clk $end
  $var wire 1 # rst $end
  $var wire 32 $ multiplicand [31:0] $end
  $var wire 32 % multiplier [31:0] $end
  $var wire 1 & start $end
  $var wire 64 2 product [63:0] $end
  $var wire 1 4 finish $end
  $var wire 32 7 i [31:0] $end
  $var wire 32 ' seed [31:0] $end
  $var wire 1 . error $end
  $scope module judge $end
   $var wire 1 1 clk $end
   $var wire 1 ( rstn $end
   $var wire 32 $ multiplicand [31:0] $end
   $var wire 32 % multiplier [31:0] $end
   $var wire 1 & start $end
   $var wire 64 2 product [63:0] $end
   $var wire 1 4 finish $end
   $var wire 1 . error $end
   $var wire 32 / multiplicand_reg [31:0] $end
   $var wire 32 0 multiplier_reg [31:0] $end
  $upscope $end
  $scope module mul $end
   $var wire 32 8 LEN [31:0] $end
   $var wire 1 1 clk $end
   $var wire 1 # rst $end
   $var wire 32 $ multiplicand [31:0] $end
   $var wire 32 % multiplier [31:0] $end
   $var wire 1 & start $end
   $var wire 64 2 product [63:0] $end
   $var wire 1 4 finish $end
   $var wire 32 9 PRODUCT_LEN [31:0] $end
   $var wire 32 * multiplicand_reg [31:0] $end
   $var wire 64 2 product_reg [63:0] $end
   $var wire 32 : CNT_LEN [31:0] $end
   $var wire 32 ; CNT_NUM [31:0] $end
   $var wire 2 5 fsm_state_reg [1:0] $end
   $var wire 5 6 work_cnt [4:0] $end
   $var wire 1 4 finish_reg $end
   $var wire 1 + temp_carry $end
   $scope module unnamedblk1 $end
    $var wire 33 , add_result [32:0] $end
   $upscope $end
  $upscope $end
  $scope module unnamedblk1 $end
   $var wire 32 ) i [31:0] $end
  $upscope $end
 $upscope $end
$enddefinitions $end


#0
1#
b00000000000000000000000000000000 $
b00000000000000000000000000000000 %
0&
b00000000000000000000000000000000 '
0(
b00000000000000000000000000000000 )
b00000000000000000000000000000000 *
0+
b000000000000000000000000000000000 ,
0.
b00000000000000000000000000000000 /
b00000000000000000000000000000000 0
01
b0000000000000000000000000000000000000000000000000000000000000000 2
04
b00 5
b00000 6
b00000000000000000000000000000000 7
b00000000000000000000000000100000 8
b00000000000000000000000001000000 9
b00000000000000000000000000000101 :
b00000000000000000000000000011111 ;
#500
11
b11111 6
#1000
01
#1500
11
#2000
0#
b00001011000111100101110110011100 $
b11100010001111001011101100111001 %
1&
b11110010111011001110011110001000 '
1(
01
#2500
b00001011000111100101110110011100 *
b00001011000111100101110110011100 /
b11100010001111001011101100111001 0
11
b0000000000000000000000000000000011100010001111001011101100111001 2
b01 5
#3000
01
#3500
b000001011000111100101110110011100 ,
11
b0000010110001111001011101100111001110001000111100101110110011100 2
b11110 6
#4000
01
#4500
11
b0000001011000111100101110110011100111000100011110010111011001110 2
b11101 6
#5000
01
#5500
11
b0000000101100011110010111011001110011100010001111001011101100111 2
b11100 6
#6000
01
#6500
b000001100100000100010100101001111 ,
11
b0000011001000001000101001010011111001110001000111100101110110011 2
b11011 6
#7000
01
#7500
b000010001010111110111001001000011 ,
11
b0000100010101111101110010010000111100111000100011110010111011001 2
b11010 6
#8000
01
#8500
b000010011110011100001011010111101 ,
11
b0000100111100111000010110101111011110011100010001111001011101100 2
b11001 6
#9000
01
#9500
11
b0000010011110011100001011010111101111001110001000111100101110110 2
b11000 6
#10000
01
#10500
11
b0000001001111001110000101101011110111100111000100011110010111011 2
b10111 6
#11000
01
#11500
b000001101100110000010000001110011 ,
11
b0000011011001100000100000011100111011110011100010001111001011101 2
b10110 6
#12000
01
#12500
b000010001111010100110110111010101 ,
11
b0000100011110101001101101110101011101111001110001000111100101110 2
b10101 6
#13000
01
#13500
11
b0000010001111010100110110111010101110111100111000100011110010111 2
b10100 6
#14000
01
#14500
b000001111100110001111100100010001 ,
11
b0000011111001100011111001000100010111011110011100010001111001011 2
b10011 6
#15000
01
#15500
b000010010111010101101101000100100 ,
11
b0000100101110101011011010001001001011101111001110001000111100101 2
b10010 6
#16000
01
#16500
b000010100100100111100101010101110 ,
11
b0000101001001001111001010101011100101110111100111000100011110010 2
b10001 6
#17000
01
#17500
11
b0000010100100100111100101010101110010111011110011100010001111001 2
b10000 6
#18000
01
#18500
b000010000010000110101000001000111 ,
11
b0000100000100001101010000010001111001011101111001110001000111100 2
b01111 6
#19000
01
#19500
11
b0000010000010000110101000001000111100101110111100111000100011110 2
b01110 6
#20000
01
#20500
11
b0000001000001000011010100000100011110010111011110011100010001111 2
b01101 6
#21000
01
#21500
b000001101001001101100011110100100 ,
11
b0000011010010011011000111101001001111001011101111001110001000111 2
b01100 6
#22000
01
#22500
b000010001101100011100000101101110 ,
11
b0000100011011000111000001011011100111100101110111100111000100011 2
b01011 6
#23000
01
#23500
b000010011111101110011111001010011 ,
11
b0000100111111011100111110010100110011110010111011110011100010001 2
b01010 6
#24000
01
#24500
b000010101000110011111110011000101 ,
11
b0000101010001100111111100110001011001111001011101111001110001000 2
b01001 6
#25000
01
#25500
11
b0000010101000110011111110011000101100111100101110111100111000100 2
b01000 6
#26000
01
#26500
11
b0000001010100011001111111001100010110011110010111011110011100010 2
b00111 6
#27000
01
#27500
11
b0000000101010001100111111100110001011001111001011101111001110001 2
b00110 6
#28000
01
#28500
b000001100011011111111110101101000 ,
11
b0000011000110111111111101011010000101100111100101110111100111000 2
b00101 6
#29000
01
#29500
11
b0000001100011011111111110101101000010110011110010111011110011100 2
b00100 6
#30000
01
#30500
11
b0000000110001101111111111010110100001011001111001011101111001110 2
b00011 6
#31000
01
#31500
11
b0000000011000110111111111101011010000101100111100101110111100111 2
b00010 6
#32000
01
#32500
b000001011111001010101110101110010 ,
11
b0000010111110010101011101011100101000010110011110010111011110011 2
b00001 6
#33000
01
#33500
b000010001000100010000110001010101 ,
11
b0000100010001000100001100010101010100001011001111001011101111001 2
b00000 6
#34000
01
#34500
b000010011101001101110001111000110 ,
11
b0000100111010011011100011110001101010000101100111100101110111100 2
b10 5
b11111 6
#35000
01
#35500
0&
11
14
b00 5
#36000
01
#36500
11
b0000000000000000000000000000000011100010001111001011101100111001 2
04
#37000
01
#37500
b00111011111110010111011001110011 $
b01110111111100101110110011100111 %
1&
b11001011101100111001111000100000 '
b00000000000000000000000000000001 )
b00111011111110010111011001110011 *
b00111011111110010111011001110011 /
b01110111111100101110110011100111 0
11
b0000000000000000000000000000000001110111111100101110110011100111 2
b01 5
#38000
01
#38500
b000111011111110010111011001110011 ,
11
b0001110111111100101110110011100110111011111110010111011001110011 2
b11110 6
#39000
01
#39500
b001011001111101100011000110101100 ,
11
b0010110011111011000110001101011001011101111111001011101100111001 2
b11101 6
#40000
01
#40500
b001101000111101001000111101001001 ,
11
b0011010001111010010001111010010010101110111111100101110110011100 2
b11100 6
#41000
01
#41500
11
b0001101000111101001000111101001001010111011111110010111011001110 2
b11011 6
#42000
01
#42500
11
b0000110100011110100100011110100100101011101111111001011101100111 2
b11010 6
#43000
01
#43500
b001001001000110000000100001011100 ,
11
b0010010010001100000001000010111000010101110111111100101110110011 2
b11001 6
#44000
01
#44500
b001100000100001010111101010100001 ,
11
b0011000001000010101111010101000010001010111011111110010111011001 2
b11000 6
#45000
01
#45500
b001101100001111000011001111000011 ,
11
b0011011000011110000110011110000111000101011101111111001011101100 2
b10111 6
#46000
01
#46500
11
b0001101100001111000011001111000011100010101110111111100101110110 2
b10110 6
#47000
01
#47500
11
b0000110110000111100001100111100001110001010111011111110010111011 2
b10101 6
#48000
01
#48500
b001001001100000001111110011101011 ,
11
b0010010011000000011111100111010110111000101011101111111001011101 2
b10100 6
#49000
01
#49500
b001100000101110011111010011101000 ,
11
b0011000001011100111110100111010001011100010101110111111100101110 2
b10011 6
#50000
01
#50500
11
b0001100000101110011111010011101000101110001010111011111110010111 2
b10010 6
#51000
01
#51500
b001010100001001111111001110101101 ,
11
b0010101000010011111110011101011010010111000101011101111111001011 2
b10001 6
#52000
01
#52500
b001100110000011010111000001001001 ,
11
b0011001100000110101110000010010011001011100010101110111111100101 2
b10000 6
#53000
01
#53500
b001101111000000000010111010010111 ,
11
b0011011110000000000101110100101111100101110001010111011111110010 2
b01111 6
#54000
01
#54500
11
b0001101111000000000010111010010111110010111000101011101111111001 2
b01110 6
#55000
01
#55500
b001010111101110011000001000011000 ,
11
b0010101111011100110000010000110001111001011100010101110111111100 2
b01101 6
#56000
01
#56500
11
b0001010111101110011000001000011000111100101110001010111011111110 2
b01100 6
#57000
01
#57500
11
b0000101011110111001100000100001100011110010111000101011101111111 2
b01011 6
#58000
01
#58500
b001000110111100001010011010110110 ,
11
b0010001101111000010100110101101100001111001011100010101110111111 2
b01010 6
#59000
01
#59500
b001011111011100011100100111001110 ,
11
b0010111110111000111001001110011100000111100101110001010111011111 2
b01001 6
#60000
01
#60500
b001101011101100100101101101011010 ,
11
b0011010111011001001011011010110100000011110010111000101011101111 2
b01000 6
#61000
01
#61500
b001110001110100101010010000100000 ,
11
b0011100011101001010100100001000000000001111001011100010101110111 2
b00111 6
#62000
01
#62500
b001110100111000101100100010000011 ,
11
b0011101001110001011001000100000110000000111100101110001010111011 2
b00110 6
#63000
01
#63500
b001110110011010101101101010110100 ,
11
b0011101100110101011011010101101001000000011110010111000101011101 2
b00101 6
#64000
01
#64500
b001110111001011101110001111001101 ,
11
b0011101110010111011100011110011010100000001111001011100010101110 2
b00100 6
#65000
01
#65500
11
b0001110111001011101110001111001101010000000111100101110001010111 2
b00011 6
#66000
01
#66500
b001011001110001010010111101100110 ,
11
b0010110011100010100101111011001100101000000011110010111000101011 2
b00010 6
#67000
01
#67500
b001101000110111000000111000100110 ,
11
b0011010001101110000001110001001100010100000001111001011100010101 2
b00001 6
#68000
01
#68500
b001110000011001110111110110000110 ,
11
b0011100000110011101111101100001100001010000000111100101110001010 2
b00000 6
#69000
01
#69500
11
b0001110000011001110111110110000110000101000000011110010111000101 2
b10 5
b11111 6
#70000
01
#70500
0&
11
14
b00 5
#71000
01
#71500
11
b0000000000000000000000000000000001110111111100101110110011100111 2
04
#72000
01
#72500
b11101111111001011101100111001111 $
b11011111110010111011001110011110 %
1&
b00101110110011100111100010000000 '
b00000000000000000000000000000010 )
b11101111111001011101100111001111 *
b11101111111001011101100111001111 /
b11011111110010111011001110011110 0
11
b0000000000000000000000000000000011011111110010111011001110011110 2
b01 5
#73000
01
#73500
11
b0000000000000000000000000000000001101111111001011101100111001111 2
b11110 6
#74000
01
#74500
b011101111111001011101100111001111 ,
11
b0111011111110010111011001110011110110111111100101110110011100111 2
b11101 6
#75000
01
#75500
1+
b101100111110110001100011010110110 ,
11
b1011001111101100011000110101101101011011111110010111011001110011 2
b11100 6
#76000
01
#76500
b110100011110100100011110100101010 ,
11
b1101000111101001000111101001010100101101111111001011101100111001 2
b11011 6
#77000
01
#77500
b111000001110011101111100001100100 ,
11
b1110000011100111011111000011001000010110111111100101110110011100 2
b11010 6
#78000
01
#78500
0+
11
b0111000001110011101111100001100100001011011111110010111011001110 2
b11001 6
#79000
01
#79500
11
b0011100000111001110111110000110010000101101111111001011101100111 2
b11000 6
#80000
01
#80500
1+
b100101000000111111011100011011011 ,
11
b1001010000001111110111000110110111000010110111111100101110110011 2
b10111 6
#81000
01
#81500
b110000011111101011011011000111100 ,
11
b1100000111111010110110110001111001100001011011111110010111011001 2
b10110 6
#82000
01
#82500
b110110001111000001011010011101101 ,
11
b1101100011110000010110100111011010110000101101111111001011101100 2
b10101 6
#83000
01
#83500
0+
11
b0110110001111000001011010011101101011000010110111111100101110110 2
b10100 6
#84000
01
#84500
11
b0011011000111100000101101001110110101100001011011111110010111011 2
b10011 6
#85000
01
#85500
1+
b100100110001000011111000001101100 ,
11
b1001001100010000111110000011011001010110000101101111111001011101 2
b10010 6
#86000
01
#86500
b110000010111101101101001000000101 ,
11
b1100000101111011011010010000001010101011000010110111111100101110 2
b10001 6
#87000
01
#87500
0+
11
b0110000010111101101101001000000101010101100001011011111110010111 2
b10000 6
#88000
01
#88500
1+
b101010000101000111000111001010000 ,
11
b1010100001010001110001110010100000101010110000101101111111001011 2
b01111 6
#89000
01
#89500
b110011000001101111010000011110111 ,
11
b1100110000011011110100000111101110010101011000010110111111100101 2
b01110 6
#90000
01
#90500
b110111100000000011010101001001010 ,
11
b1101111000000000110101010010010101001010101100001011011111110010 2
b01101 6
#91000
01
#91500
0+
11
b0110111100000000011010101001001010100101010110000101101111111001 2
b01100 6
#92000
01
#92500
1+
b101011110111001100100010001100001 ,
11
b1010111101110011001000100011000011010010101011000010110111111100 2
b01011 6
#93000
01
#93500
0+
11
b0101011110111001100100010001100001101001010101100001011011111110 2
b01010 6
#94000
01
#94500
11
b0010101111011100110010001000110000110100101010110000101101111111 2
b01001 6
#95000
01
#95500
1+
b100011011110000101010001001011011 ,
11
b1000110111100001010100010010110110011010010101011000010110111111 2
b01000 6
#96000
01
#96500
b101111101110001110010101011111100 ,
11
b1011111011100011100101010111111001001101001010101100001011011111 2
b00111 6
#97000
01
#97500
b110101110110010010110111101001101 ,
11
b1101011101100100101101111010011010100110100101010110000101101111 2
b00110 6
#98000
01
#98500
b111000111010010101001000101110101 ,
11
b1110001110100101010010001011101011010011010010101011000010110111 2
b00101 6
#99000
01
#99500
b111010011100010110010001010001001 ,
11
b1110100111000101100100010100010011101001101001010101100001011011 2
b00100 6
#100000
01
#100500
b111011001101010110110101100010011 ,
11
b1110110011010101101101011000100111110100110100101010110000101101 2
b00011 6
#101000
01
#101500
b111011100101110111000111101011000 ,
11
b1110111001011101110001111010110001111010011010010101011000010110 2
b00010 6
#102000
01
#102500
0+
11
b0111011100101110111000111101011000111101001101001010101100001011 2
b00001 6
#103000
01
#103500
1+
b101100111000101001011110110100101 ,
11
b1011001110001010010111101101001010011110100110100101010110000101 2
b00000 6
#104000
01
#104500
b110100011011100000011100010100001 ,
11
b1101000110111000000111000101000011001111010011010010101011000010 2
b10 5
b11111 6
#105000
01
#105500
0&
11
14
b00 5
#106000
01
#106500
11
b0000000000000000000000000000000011011111110010111011001110011110 2
04
#107000
01
#107500
b01000000000101110110011100111100 $
b10000000001011101100111001111000 %
1&
b10111011001110011110001000000000 '
b00000000000000000000000000000011 )
b01000000000101110110011100111100 *
b01000000000101110110011100111100 /
b10000000001011101100111001111000 0
11
b0000000000000000000000000000000010000000001011101100111001111000 2
b01 5
#108000
01
#108500
0+
11
b0000000000000000000000000000000001000000000101110110011100111100 2
b11110 6
#109000
01
#109500
11
b0000000000000000000000000000000000100000000010111011001110011110 2
b11101 6
#110000
01
#110500
11
b0000000000000000000000000000000000010000000001011101100111001111 2
b11100 6
#111000
01
#111500
b001000000000101110110011100111100 ,
11
b0010000000001011101100111001111000001000000000101110110011100111 2
b11011 6
#112000
01
#112500
b001100000001000110001101011011010 ,
11
b0011000000010001100011010110110100000100000000010111011001110011 2
b11010 6
#113000
01
#113500
b001110000001010001111010010101001 ,
11
b0011100000010100011110100101010010000010000000001011101100111001 2
b11001 6
#114000
01
#114500
b001111000001010111110000110010000 ,
11
b0011110000010101111100001100100001000001000000000101110110011100 2
b11000 6
#115000
01
#115500
11
b0001111000001010111110000110010000100000100000000010111011001110 2
b10111 6
#116000
01
#116500
11
b0000111100000101011111000011001000010000010000000001011101100111 2
b10110 6
#117000
01
#117500
b001001111000111001110001101101110 ,
11
b0010011110001110011100011011011100001000001000000000101110110011 2
b10101 6
#118000
01
#118500
b001100111101001011101100011110011 ,
11
b0011001111010010111011000111100110000100000100000000010111011001 2
b10100 6
#119000
01
#119500
b001110011111010100101001110110101 ,
11
b0011100111110101001010011101101011000010000010000000001011101100 2
b10011 6
#120000
01
#120500
11
b0001110011111010100101001110110101100001000001000000000101110110 2
b10010 6
#121000
01
#121500
11
b0000111001111101010010100111011010110000100000100000000010111011 2
b10001 6
#122000
01
#122500
b001001110100101001011000110110010 ,
11
b0010011101001010010110001101100101011000010000010000000001011101 2
b10000 6
#123000
01
#123500
b001100111011000011100000000010101 ,
11
b0011001110110000111000000000101010101100001000001000000000101110 2
b01111 6
#124000
01
#124500
11
b0001100111011000011100000000010101010110000100000100000000010111 2
b01110 6
#125000
01
#125500
b001011001111011111101011101000001 ,
11
b0010110011110111111010111010000010101011000010000010000000001011 2
b01101 6
#126000
01
#126500
b001101101000011110101001011011100 ,
11
b0011011010000111101010010110111001010101100001000001000000000101 2
b01100 6
#127000
01
#127500
b001110110100111110001000010101010 ,
11
b0011101101001111100010000101010100101010110000100000100000000010 2
b01011 6
#128000
01
#128500
11
b0001110110100111110001000010101010010101011000010000010000000001 2
b01010 6
#129000
01
#129500
b001011101101111110010101101100110 ,
11
b0010111011011111100101011011001101001010101100001000001000000000 2
b01001 6
#130000
01
#130500
11
b0001011101101111110010101101100110100101010110000100000100000000 2
b01000 6
#131000
01
#131500
11
b0000101110110111111001010110110011010010101011000010000010000000 2
b00111 6
#132000
01
#132500
11
b0000010111011011111100101011011001101001010101100001000001000000 2
b00110 6
#133000
01
#133500
11
b0000001011101101111110010101101100110100101010110000100000100000 2
b00101 6
#134000
01
#134500
11
b0000000101110110111111001010110110011010010101011000010000010000 2
b00100 6
#135000
01
#135500
11
b0000000010111011011111100101011011001101001010101100001000001000 2
b00011 6
#136000
01
#136500
11
b0000000001011101101111110010101101100110100101010110000100000100 2
b00010 6
#137000
01
#137500
11
b0000000000101110110111111001010110110011010010101011000010000010 2
b00001 6
#138000
01
#138500
11
b0000000000010111011011111100101011011001101001010101100001000001 2
b00000 6
#139000
01
#139500
b001000000001011101101011100000110 ,
11
b0010000000010111011010111000001101101100110100101010110000100000 2
b10 5
b11111 6
#140000
01
#140500
0&
11
14
b00 5
#141000
01
#141500
11
b0000000000000000000000000000000010000000001011101100111001111000 2
04
#142000
01
#142500
b11111111110111011001110011110001 $
b00000000001110110011100111100010 %
1&
b11101100111001111000100000000000 '
b00000000000000000000000000000100 )
b11111111110111011001110011110001 *
b11111111110111011001110011110001 /
b00000000001110110011100111100010 0
11
b0000000000000000000000000000000000000000001110110011100111100010 2
b01 5
#143000
01
#143500
11
b0000000000000000000000000000000000000000000111011001110011110001 2
b11110 6
#144000
01
#144500
b011111111110111011001110011110001 ,
11
b0111111111101110110011100111100010000000000011101100111001111000 2
b11101 6
#145000
01
#145500
11
b0011111111110111011001110011110001000000000001110110011100111100 2
b11100 6
#146000
01
#146500
11
b0001111111111011101100111001111000100000000000111011001110011110 2
b11011 6
#147000
01
#147500
11
b0000111111111101110110011100111100010000000000011101100111001111 2
b11010 6
#148000
01
#148500
1+
b100001111110110110111011011000000 ,
11
b1000011111101101101110110110000000001000000000001110110011100111 2
b11001 6
#149000
01
#149500
b110000111110010110101100001010001 ,
11
b1100001111100101101011000010100010000100000000000111011001110011 2
b11000 6
#150000
01
#150500
b111000011110000110100100100011001 ,
11
b1110000111100001101001001000110011000010000000000011101100111001 2
b10111 6
#151000
01
#151500
b111100001101111110100000101111101 ,
11
b1111000011011111101000001011111011100001000000000001110110011100 2
b10110 6
#152000
01
#152500
0+
11
b0111100001101111110100000101111101110000100000000000111011001110 2
b10101 6
#153000
01
#153500
11
b0011110000110111111010000010111110111000010000000000011101100111 2
b10100 6
#154000
01
#154500
1+
b100111100000101011000010100100000 ,
11
b1001111000001010110000101001000001011100001000000000001110110011 2
b10011 6
#155000
01
#155500
b110011101111010000101111110000001 ,
11
b1100111011110100001011111100000010101110000100000000000111011001 2
b10010 6
#156000
01
#156500
b111001110110100011100110010110001 ,
11
b1110011101101000111001100101100011010111000010000000000011101100 2
b10001 6
#157000
01
#157500
0+
11
b0111001110110100011100110010110001101011100001000000000001110110 2
b10000 6
#158000
01
#158500
11
b0011100111011010001110011001011000110101110000100000000000111011 2
b01111 6
#159000
01
#159500
1+
b100111001101101111101011010000111 ,
11
b1001110011011011111010110100001110011010111000010000000000011101 2
b01110 6
#160000
01
#160500
b110011100101110011000100000110100 ,
11
b1100111001011100110001000001101001001101011100001000000000001110 2
b01101 6
#161000
01
#161500
0+
11
b0110011100101110011000100000110100100110101110000100000000000111 2
b01100 6
#162000
01
#162500
1+
b101100111000010111111111011111110 ,
11
b1011001110000101111111110111111100010011010111000010000000000011 2
b01011 6
#163000
01
#163500
b110110011011000111001110001110000 ,
11
b1101100110110001110011100011100000001001101011100001000000000001 2
b01010 6
#164000
01
#164500
b111011001100011110110101100101001 ,
11
b1110110011000111101101011001010010000100110101110000100000000000 2
b01001 6
#165000
01
#165500
0+
11
b0111011001100011110110101100101001000010011010111000010000000000 2
b01000 6
#166000
01
#166500
11
b0011101100110001111011010110010100100001001101011100001000000000 2
b00111 6
#167000
01
#167500
11
b0001110110011000111101101011001010010000100110101110000100000000 2
b00110 6
#168000
01
#168500
11
b0000111011001100011110110101100101001000010011010111000010000000 2
b00101 6
#169000
01
#169500
11
b0000011101100110001111011010110010100100001001101011100001000000 2
b00100 6
#170000
01
#170500
11
b0000001110110011000111101101011001010010000100110101110000100000 2
b00011 6
#171000
01
#171500
11
b0000000111011001100011110110101100101001000010011010111000010000 2
b00010 6
#172000
01
#172500
11
b0000000011101100110001111011010110010100100001001101011100001000 2
b00001 6
#173000
01
#173500
11
b0000000001110110011000111101101011001010010000100110101110000100 2
b00000 6
#174000
01
#174500
11
b0000000000111011001100011110110101100101001000010011010111000010 2
b10 5
b11111 6
#175000
01
#175500
0&
11
14
b00 5
#176000
01
#176500
11
b0000000000000000000000000000000000000000001110110011100111100010 2
04
#177000
01
#177500
b11111111111101100111001111000100 $
b11111111111011001110011110001000 %
1&
b10110011100111100010000000000000 '
b00000000000000000000000000000101 )
b11111111111101100111001111000100 *
b11111111111101100111001111000100 /
b11111111111011001110011110001000 0
11
b0000000000000000000000000000000011111111111011001110011110001000 2
b01 5
#178000
01
#178500
11
b0000000000000000000000000000000001111111111101100111001111000100 2
b11110 6
#179000
01
#179500
11
b0000000000000000000000000000000000111111111110110011100111100010 2
b11101 6
#180000
01
#180500
11
b0000000000000000000000000000000000011111111111011001110011110001 2
b11100 6
#181000
01
#181500
b011111111111101100111001111000100 ,
11
b0111111111111011001110011110001000001111111111101100111001111000 2
b11011 6
#182000
01
#182500
11
b0011111111111101100111001111000100000111111111110110011100111100 2
b11010 6
#183000
01
#183500
11
b0001111111111110110011100111100010000011111111111011001110011110 2
b11001 6
#184000
01
#184500
11
b0000111111111111011001110011110001000001111111111101100111001111 2
b11000 6
#185000
01
#185500
1+
b100001111111101011101101100000000 ,
11
b1000011111111010111011011000000000100000111111111110110011100111 2
b10111 6
#186000
01
#186500
b110000111111100010110000101000100 ,
11
b1100001111111000101100001010001000010000011111111111011001110011 2
b10110 6
#187000
01
#187500
b111000011111011110010010001100110 ,
11
b1110000111110111100100100011001100001000001111111111101100111001 2
b10101 6
#188000
01
#188500
b111100001111011100000010111110111 ,
11
b1111000011110111000000101111101110000100000111111111110110011100 2
b10100 6
#189000
01
#189500
0+
11
b0111100001111011100000010111110111000010000011111111111011001110 2
b10011 6
#190000
01
#190500
11
b0011110000111101110000001011111011100001000001111111111101100111 2
b10010 6
#191000
01
#191500
1+
b100111100001101000011010010000010 ,
11
b1001111000011010000110100100000101110000100000111111111110110011 2
b10001 6
#192000
01
#192500
b110011110000100001000111000000101 ,
11
b1100111100001000010001110000001010111000010000011111111111011001 2
b10000 6
#193000
01
#193500
b111001110111111101011101011000110 ,
11
b1110011101111111010111010110001101011100001000001111111111101100 2
b01111 6
#194000
01
#194500
0+
11
b0111001110111111101011101011000110101110000100000111111111110110 2
b01110 6
#195000
01
#195500
11
b0011100111011111110101110101100011010111000010000011111111111011 2
b01101 6
#196000
01
#196500
1+
b100111001110101100100101100011100 ,
11
b1001110011101011001001011000111001101011100001000001111111111101 2
b01100 6
#197000
01
#197500
b110011100111000011001100101010010 ,
11
b1100111001110000110011001010100100110101110000100000111111111110 2
b01011 6
#198000
01
#198500
0+
11
b0110011100111000011001100101010010011010111000010000011111111111 2
b01010 6
#199000
01
#199500
1+
b101100111001011101101101000011000 ,
11
b1011001110010111011011010000110001001101011100001000001111111111 2
b01001 6
#200000
01
#200500
b110110011100011011110000011010000 ,
11
b1101100111000110111100000110100000100110101110000100000111111111 2
b01000 6
#201000
01
#201500
b111011001101111010110010000101100 ,
11
b1110110011011110101100100001011000010011010111000010000011111111 2
b00111 6
#202000
01
#202500
b111101100110101010010010111011010 ,
11
b1111011001101010100100101110110100001001101011100001000001111111 2
b00110 6
#203000
01
#203500
b111110110011000010000011010110001 ,
11
b1111101100110000100000110101100010000100110101110000100000111111 2
b00101 6
#204000
01
#204500
b111111011001001101111011100011100 ,
11
b1111110110010011011110111000111001000010011010111000010000011111 2
b00100 6
#205000
01
#205500
b111111101100010011110111101010010 ,
11
b1111111011000100111101111010100100100001001101011100001000001111 2
b00011 6
#206000
01
#206500
b111111110101110110110101101101101 ,
11
b1111111101011101101101011011011010010000100110101110000100000111 2
b00010 6
#207000
01
#207500
b111111111010101000010100101111010 ,
11
b1111111110101010000101001011110101001000010011010111000010000011 2
b00001 6
#208000
01
#208500
b111111111101000001000100010000001 ,
11
b1111111111010000010001000100000010100100001001101011100001000001 2
b00000 6
#209000
01
#209500
b111111111110001101011100000000100 ,
11
b1111111111100011010111000000001001010010000100110101110000100000 2
b10 5
b11111 6
#210000
01
#210500
0&
11
14
b00 5
#211000
01
#211500
11
b0000000000000000000000000000000011111111111011001110011110001000 2
04
#212000
01
#212500
b11111111110110011100111100010000 $
b00000000001100111001111000100000 %
1&
b11001110011110001000000000000000 '
b00000000000000000000000000000110 )
b11111111110110011100111100010000 *
b11111111110110011100111100010000 /
b00000000001100111001111000100000 0
11
b0000000000000000000000000000000000000000001100111001111000100000 2
b01 5
#213000
01
#213500
0+
11
b0000000000000000000000000000000000000000000110011100111100010000 2
b11110 6
#214000
01
#214500
11
b0000000000000000000000000000000000000000000011001110011110001000 2
b11101 6
#215000
01
#215500
11
b0000000000000000000000000000000000000000000001100111001111000100 2
b11100 6
#216000
01
#216500
11
b0000000000000000000000000000000000000000000000110011100111100010 2
b11011 6
#217000
01
#217500
11
b0000000000000000000000000000000000000000000000011001110011110001 2
b11010 6
#218000
01
#218500
b011111111110110011100111100010000 ,
11
b0111111111101100111001111000100000000000000000001100111001111000 2
b11001 6
#219000
01
#219500
11
b0011111111110110011100111100010000000000000000000110011100111100 2
b11000 6
#220000
01
#220500
11
b0001111111111011001110011110001000000000000000000011001110011110 2
b10111 6
#221000
01
#221500
11
b0000111111111101100111001111000100000000000000000001100111001111 2
b10110 6
#222000
01
#222500
1+
b100001111110101110110110000000001 ,
11
b1000011111101011101101100000000010000000000000000000110011100111 2
b10101 6
#223000
01
#223500
b110000111110001011000010100010000 ,
11
b1100001111100010110000101000100001000000000000000000011001110011 2
b10100 6
#224000
01
#224500
b111000011101111001001000110011000 ,
11
b1110000111011110010010001100110000100000000000000000001100111001 2
b10011 6
#225000
01
#225500
b111100001101110000001011111011100 ,
11
b1111000011011100000010111110111000010000000000000000000110011100 2
b10010 6
#226000
01
#226500
0+
11
b0111100001101110000001011111011100001000000000000000000011001110 2
b10001 6
#227000
01
#227500
11
b0011110000110111000000101111101110000100000000000000000001100111 2
b10000 6
#228000
01
#228500
1+
b100111100000100001101001000001011 ,
11
b1001111000001000011010010000010111000010000000000000000000110011 2
b01111 6
#229000
01
#229500
b110011101111000100011100000010101 ,
11
b1100111011110001000111000000101011100001000000000000000000011001 2
b01110 6
#230000
01
#230500
b111001110110010101110101100011010 ,
11
b1110011101100101011101011000110101110000100000000000000000001100 2
b01101 6
#231000
01
#231500
0+
11
b0111001110110010101110101100011010111000010000000000000000000110 2
b01100 6
#232000
01
#232500
11
b0011100111011001010111010110001101011100001000000000000000000011 2
b01011 6
#233000
01
#233500
1+
b100111001101100110010110001110011 ,
11
b1001110011011001100101100011100110101110000100000000000000000001 2
b01010 6
#234000
01
#234500
b110011100101100110110010101001001 ,
11
b1100111001011001101100101010010011010111000010000000000000000000 2
b01001 6
#235000
01
#235500
0+
11
b0110011100101100110110010101001001101011100001000000000000000000 2
b01000 6
#236000
01
#236500
11
b0011001110010110011011001010100100110101110000100000000000000000 2
b00111 6
#237000
01
#237500
11
b0001100111001011001101100101010010011010111000010000000000000000 2
b00110 6
#238000
01
#238500
11
b0000110011100101100110110010101001001101011100001000000000000000 2
b00101 6
#239000
01
#239500
11
b0000011001110010110011011001010100100110101110000100000000000000 2
b00100 6
#240000
01
#240500
11
b0000001100111001011001101100101010010011010111000010000000000000 2
b00011 6
#241000
01
#241500
11
b0000000110011100101100110110010101001001101011100001000000000000 2
b00010 6
#242000
01
#242500
11
b0000000011001110010110011011001010100100110101110000100000000000 2
b00001 6
#243000
01
#243500
11
b0000000001100111001011001101100101010010011010111000010000000000 2
b00000 6
#244000
01
#244500
11
b0000000000110011100101100110110010101001001101011100001000000000 2
b10 5
b11111 6
#245000
01
#245500
0&
11
14
b00 5
#246000
01
#246500
11
b0000000000000000000000000000000000000000001100111001111000100000 2
04
#247000
01
#247500
b11111111111001110011110001000000 $
b00000000001100011000011101111111 %
1&
b11000110000111011111111111111110 '
b00000000000000000000000000000111 )
b11111111111001110011110001000000 *
b11111111111001110011110001000000 /
b00000000001100011000011101111111 0
11
b0000000000000000000000000000000000000000001100011000011101111111 2
b01 5
#248000
01
#248500
b011111111111001110011110001000000 ,
11
b0111111111110011100111100010000000000000000110001100001110111111 2
b11110 6
#249000
01
#249500
1+
b101111111110110101101101001100000 ,
11
b1011111111101101011011010011000000000000000011000110000111011111 2
b11101 6
#250000
01
#250500
b110111111110101001010100101110000 ,
11
b1101111111101010010101001011100000000000000001100011000011101111 2
b11100 6
#251000
01
#251500
b111011111110100011001000011111000 ,
11
b1110111111101000110010000111110000000000000000110001100001110111 2
b11011 6
