build/verilate/Testbench.vcd
$version Generated by VerilatedVcd $end
$timescale 10ps $end
 $scope module $rootio $end
 $upscope $end
 $scope module Testbench $end
  $var wire 1 5 clk $end
  $var wire 1 # rst $end
  $var wire 32 $ multiplicand [31:0] $end
  $var wire 32 % multiplier [31:0] $end
  $var wire 1 & start $end
  $var wire 64 / product [63:0] $end
  $var wire 1 1 finish $end
  $var wire 32 7 i [31:0] $end
  $var wire 1 , error $end
  $scope module judge $end
   $var wire 1 5 clk $end
   $var wire 1 ' rstn $end
   $var wire 32 $ multiplicand [31:0] $end
   $var wire 32 % multiplier [31:0] $end
   $var wire 1 & start $end
   $var wire 64 / product [63:0] $end
   $var wire 1 1 finish $end
   $var wire 1 , error $end
   $var wire 32 - multiplicand_reg [31:0] $end
   $var wire 32 . multiplier_reg [31:0] $end
  $upscope $end
  $scope module mul $end
   $var wire 32 8 LEN [31:0] $end
   $var wire 1 5 clk $end
   $var wire 1 # rst $end
   $var wire 32 $ multiplicand [31:0] $end
   $var wire 32 % multiplier [31:0] $end
   $var wire 1 & start $end
   $var wire 64 / product [63:0] $end
   $var wire 1 1 finish $end
   $var wire 32 9 PRODUCT_LEN [31:0] $end
   $var wire 32 ) multiplicand_reg [31:0] $end
   $var wire 64 2 product_reg [63:0] $end
   $var wire 32 : CNT_LEN [31:0] $end
   $var wire 32 ; CNT_NUM [31:0] $end
   $var wire 2 6 fsm_state_reg [1:0] $end
   $var wire 5 4 work_cnt [4:0] $end
   $var wire 32 * high_product [31:0] $end
   $var wire 32 + low_product [31:0] $end
  $upscope $end
  $scope module unnamedblk1 $end
   $var wire 32 ( i [31:0] $end
  $upscope $end
 $upscope $end
$enddefinitions $end


#0
1#
b00000000000000000000000000000000 $
b00000000000000000000000000000000 %
0&
0'
b00000000000000000000000000000000 (
b00000000000000000000000000000000 )
b00000000000000000000000000000000 *
b00000000000000000000000000000000 +
0,
b00000000000000000000000000000000 -
b00000000000000000000000000000000 .
b0000000000000000000000000000000000000000000000000000000000000000 /
01
b0000000000000000000000000000000000000000000000000000000000000000 2
b11111 4
05
b00 6
b00000000000000000000000000000000 7
b00000000000000000000000000100000 8
b00000000000000000000000001000000 9
b00000000000000000000000000000101 :
b00000000000000000000000000011111 ;
#500
15
#1000
05
#1500
15
#2000
0#
b01111001011101100111001111000100 $
b00001011000111100101110110011100 %
1&
1'
05
#2500
b01111001011101100111001111000100 )
b01111001011101100111001111000100 -
b00001011000111100101110110011100 .
b0000000000000000000000000000000000001011000111100101110110011100 2
15
b01 6
#3000
05
#3500
b00001011000111100101110110011100 +
b0000000000000000000000000000000000000000000000000000000000000000 2
b11110 4
15
#4000
b10011110111111011101010100000010 $
b01001000110000101110000011100100 %
b00000000000000000000000000000001 (
05
#4500
b00000000000000000000000000000000 +
b10011110111111011101010100000010 -
b01001000110000101110000011100100 .
b0000000000000000000000000000000000000101100011110010111011001110 2
b11101 4
15
#5000
05
#5500
b00000101100011110010111011001110 +
b0000000000000000000000000000000000000000000000000000000000000000 2
b11100 4
15
#6000
b10010010000101111000001101111000 $
b10111011110101011000111010111100 %
b00000000000000000000000000000010 (
05
#6500
b00000000000000000000000000000000 +
b10010010000101111000001101111000 -
b10111011110101011000111010111100 .
b0000000000000000000000000000000000000010110001111001011101100111 2
b11011 4
15
#7000
05
#7500
b00000010110001111001011101100111 +
b0000000000000000000000000000000000000000000000000000000000000000 2
b11010 4
15
#8000
b11001010101001001001111010110110 $
b00101010000101001111111111100100 %
b00000000000000000000000000000011 (
05
#8500
b01111001011101100111001111000100 *
b00000000000000000000000000000000 +
b11001010101001001001111010110110 -
b00101010000101001111111111100100 .
b0000000000000000000000000000000000000001011000111100101110110011 2
b11001 4
15
#9000
05
#9500
b00000000000000000000000000000000 *
b00000001011000111100101110110011 +
b0011110010111011001110011110001000000000000000000000000000000000 2
b11000 4
15
#10000
b01111101011011111111001110110111 $
b11111100110001000111000101010011 %
b00000000000000000000000000000100 (
05
#10500
b10110110001100011010110110100110 *
b00000000000000000000000000000000 +
b01111101011011111111001110110111 -
b11111100110001000111000101010011 .
b0000000000000000000000000000000000000000101100011110010111011001 2
b10111 4
15
#11000
05
#11500
b00000000000000000000000000000000 *
b00000000101100011110010111011001 +
b0101101100011000110101101101001100000000000000000000000000000000 2
b10110 4
15
#12000
b01101111100111100001011100100001 $
b10001010100110100111110111100001 %
b00000000000000000000000000000101 (
05
#12500
b11010100100011110100101010010111 *
b00000000000000000000000000000000 +
b01101111100111100001011100100001 -
b10001010100110100111110111100001 .
b0000000000000000000000000000000000000000010110001111001011101100 2
b10101 4
15
#13000
05
#13500
b00000000000000000000000000000000 *
b00000000010110001111001011101100 +
b0110101001000111101001010100101110000000000000000000000000000000 2
b10100 4
15
#14000
b11011111100011001010111111000101 $
b00010010010100111111001110000010 %
b00000000000000000000000000000110 (
05
#14500
b01101010010001111010010101001011 *
b10000000000000000000000000000000 +
b11011111100011001010111111000101 -
b00010010010100111111001110000010 .
b0000000000000000000000000000000000000000001011000111100101110110 2
b10011 4
15
#15000
05
#15500
b00000000000000000000000000000000 *
b00000000001011000111100101110110 +
b0011010100100011110100101010010111000000000000000000000000000000 2
b10010 4
15
#16000
b10100100010100011111111101100010 $
b01110011010110000001011000110101 %
b00000000000000000000000000000111 (
05
#16500
b00110101001000111101001010100101 *
b11000000000000000000000000000000 +
b10100100010100011111111101100010 -
b01110011010110000001011000110101 .
b0000000000000000000000000000000000000000000101100011110010111011 2
b10001 4
15
#17000
05
#17500
b00000000000000000000000000000000 *
b00000000000101100011110010111011 +
b0001101010010001111010010101001011100000000000000000000000000000 2
b10000 4
15
#18000
b10101101111110111100100100010010 $
b01100010111110011010101101010110 %
b00000000000000000000000000001000 (
05
#18500
b10010100000010000101110100010110 *
b11100000000000000000000000000000 +
b10101101111110111100100100010010 -
b01100010111110011010101101010110 .
b0000000000000000000000000000000000000000000010110001111001011101 2
b01111 4
15
#19000
05
#19500
b00000000000000000000000000000000 *
b00000000000010110001111001011101 +
b0100101000000100001011101000101101110000000000000000000000000000 2
b01110 4
15
#20000
b10110100001100100011101111111101 $
b11011100011010110100000111110100 %
b00000000000000000000000000001001 (
05
#20500
b11000011011110101010001001001111 *
b01110000000000000000000000000000 +
b10110100001100100011101111111101 -
b11011100011010110100000111110100 .
b0000000000000000000000000000000000000000000001011000111100101110 2
b01101 4
15
#21000
05
#21500
b00000000000000000000000000000000 *
b00000000000001011000111100101110 +
b0110000110111101010100010010011110111000000000000000000000000000 2
b01100 4
15
#22000
b00000110101011011111010100111011 $
b11000110011011010100110101011000 %
b00000000000000000000000000001010 (
05
#22500
b01100001101111010101000100100111 *
b10111000000000000000000000000000 +
b00000110101011011111010100111011 -
b11000110011011010100110101011000 .
b0000000000000000000000000000000000000000000000101100011110010111 2
b01011 4
15
#23000
05
#23500
b00000000000000000000000000000000 *
b00000000000000101100011110010111 +
b0011000011011110101010001001001111011100000000000000000000000000 2
b01010 4
15
#24000
b11101001110011110000010010110010 $
b01010110110100010000100001011100 %
b00000000000000000000000000001011 (
05
#24500
b10101010010101010001110001010111 *
b11011100000000000000000000000000 +
b11101001110011110000010010110010 -
b01010110110100010000100001011100 .
b0000000000000000000000000000000000000000000000010110001111001011 2
b01001 4
15
#25000
05
#25500
b00000000000000000000000000000000 *
b00000000000000010110001111001011 +
b0101010100101010100011100010101111101110000000000000000000000000 2
b01000 4
15
#26000
b01011010000110111000010100011110 $
b10101101000111110100010110011110 %
b00000000000000000000000000001100 (
05
#26500
b11001110101000010000000111101111 *
b11101110000000000000000000000000 +
b01011010000110111000010100011110 -
b10101101000111110100010110011110 .
b0000000000000000000000000000000000000000000000001011000111100101 2
b00111 4
15
#27000
05
#27500
b00000000000000000000000000000000 *
b00000000000000001011000111100101 +
b0110011101010000100000001111011111110111000000000000000000000000 2
b00110 4
15
#28000
b00111101111110001001100110011110 $
b01111011001100110001110011101110 %
b00000000000000000000000000001101 (
05
#28500
b11100000110001101111010010111011 *
b11110111000000000000000000000000 +
b00111101111110001001100110011110 -
b01111011001100110001110011101110 .
b0000000000000000000000000000000000000000000000000101100011110010 2
b00101 4
15
#29000
05
#29500
b00000000000000000000000000000000 *
b00000000000000000101100011110010 +
b0111000001100011011110100101110111111011100000000000000000000000 2
b00100 4
15
#30000
b10011000001110110110101100010000 $
b01000000111110110111111101110110 %
b00000000000000000000000000001110 (
05
#30500
b01110000011000110111101001011101 *
b11111011100000000000000000000000 +
b10011000001110110110101100010000 -
b01000000111110110111111101110110 .
b0000000000000000000000000000000000000000000000000010110001111001 2
b00011 4
15
#31000
05
#31500
b00000000000000000000000000000000 *
b00000000000000000010110001111001 +
b0011100000110001101111010010111011111101110000000000000000000000 2
b00010 4
15
#32000
b01011010010100001110110101100011 $
b01011001100111111010001011000000 %
b00000000000000000000000000001111 (
05
#32500
b10110001101010000011000011110010 *
b11111101110000000000000000000000 +
b01011010010100001110110101100011 -
b01011001100111111010001011000000 .
b0000000000000000000000000000000000000000000000000001011000111100 2
b00001 4
15
#33000
05
#33500
b00000000000000000000000000000000 *
b00000000000000000001011000111100 +
b0101100011010100000110000111100101111110111000000000000000000000 /
11
b0101100011010100000110000111100101111110111000000000000000000000 2
b00000 4
15
#34000
b00000001110010001011101100011101 $
b11000001000110110000111100100010 %
b00000000000000000000000000010000 (
05
#34500
b01011000110101000001100001111001 *
b01111110111000000000000000000000 +
1,
b00000001110010001011101100011101 -
b11000001000110110000111100100010 .
b0000000000000000000000000000000000000000000000000000000000000000 /
01
b0000000000000000000000000000000000000000000000000000101100011110 2
b11111 4
15
b10 6
