build/verilate/Testbench.vcd
$version Generated by VerilatedVcd $end
$timescale 10ps $end
 $scope module $rootio $end
 $upscope $end
 $scope module Testbench $end
  $var wire 1 - clk $end
  $var wire 1 # rst $end
  $var wire 32 $ multiplicand [31:0] $end
  $var wire 32 % multiplier [31:0] $end
  $var wire 1 & start $end
  $var wire 64 . product [63:0] $end
  $var wire 1 0 finish $end
  $var wire 32 6 i [31:0] $end
  $var wire 32 ' seed [31:0] $end
  $var wire 1 * error $end
  $scope module judge $end
   $var wire 1 - clk $end
   $var wire 1 ( rstn $end
   $var wire 32 $ multiplicand [31:0] $end
   $var wire 32 % multiplier [31:0] $end
   $var wire 1 & start $end
   $var wire 64 . product [63:0] $end
   $var wire 1 0 finish $end
   $var wire 1 * error $end
   $var wire 32 + multiplicand_reg [31:0] $end
   $var wire 32 , multiplier_reg [31:0] $end
  $upscope $end
  $scope module mul $end
   $var wire 32 7 LEN [31:0] $end
   $var wire 1 - clk $end
   $var wire 1 # rst $end
   $var wire 32 $ multiplicand [31:0] $end
   $var wire 32 % multiplier [31:0] $end
   $var wire 1 & start $end
   $var wire 64 . product [63:0] $end
   $var wire 1 0 finish $end
   $var wire 32 8 PRODUCT_LEN [31:0] $end
   $var wire 32 1 multiplicand_reg [31:0] $end
   $var wire 64 . product_reg [63:0] $end
   $var wire 32 9 CNT_LEN [31:0] $end
   $var wire 32 : CNT_NUM [31:0] $end
   $var wire 2 2 fsm_state_reg [1:0] $end
   $var wire 5 3 work_cnt [4:0] $end
   $var wire 1 0 finish_reg $end
   $var wire 33 4 add_result [32:0] $end
  $upscope $end
  $scope module unnamedblk1 $end
   $var wire 32 ) i [31:0] $end
  $upscope $end
 $upscope $end
$enddefinitions $end


#0
1#
b00000000000000000000000000000000 $
b00000000000000000000000000000000 %
0&
b00000000000000000000000000000000 '
0(
b00000000000000000000000000000000 )
0*
b00000000000000000000000000000000 +
b00000000000000000000000000000000 ,
0-
b0000000000000000000000000000000000000000000000000000000000000000 .
00
b00000000000000000000000000000000 1
b00 2
b00000 3
b000000000000000000000000000000000 4
b00000000000000000000000000000000 6
b00000000000000000000000000100000 7
b00000000000000000000000001000000 8
b00000000000000000000000000000101 9
b00000000000000000000000000011111 :
#500
1-
b11111 3
#1000
0-
#1500
1-
#2000
0#
b00001011000111100101110110011100 $
b11100010001111001011101100111001 %
1&
b11110010111011001110011110001000 '
1(
0-
#2500
b00001011000111100101110110011100 +
b11100010001111001011101100111001 ,
1-
b0000000000000000000000000000000011100010001111001011101100111001 .
b00001011000111100101110110011100 1
b01 2
b000001011000111100101110110011100 4
#3000
0-
#3500
1-
b0000010110001111001011101100111001110001000111100101110110011100 .
b11110 3
b000010000101011011000110001101010 4
#4000
0-
#4500
1-
b0000001011000111100101110110011100111000100011110010111011001110 .
b11101 3
b000001101111001011111010100000011 4
#5000
0-
#5500
1-
b0000000101100011110010111011001110011100010001111001011101100111 .
b11100 3
b000001100100000100010100101001111 4
#6000
0-
#6500
1-
b0000011001000001000101001010011111001110001000111100101110110011 .
b11011 3
b000010001010111110111001001000011 4
#7000
0-
#7500
1-
b0000100010101111101110010010000111100111000100011110010111011001 .
b11010 3
b000010011110011100001011010111101 4
#8000
0-
#8500
1-
b0000100111100111000010110101111011110011100010001111001011101100 .
b11001 3
b000010101000001010110100011111010 4
#9000
0-
#9500
1-
b0000010011110011100001011010111101111001110001000111100101110110 .
b11000 3
b000010000000100011110001101001011 4
#10000
0-
#10500
1-
b0000001001111001110000101101011110111100111000100011110010111011 .
b10111 3
b000001101100110000010000001110011 4
#11000
0-
#11500
1-
b0000011011001100000100000011100111011110011100010001111001011101 .
b10110 3
b000010001111010100110110111010101 4
#12000
0-
#12500
1-
b0000100011110101001101101110101011101111001110001000111100101110 .
b10101 3
b000010100000100111001010010000110 4
#13000
0-
#13500
1-
b0000010001111010100110110111010101110111100111000100011110010111 .
b10100 3
b000001111100110001111100100010001 4
#14000
0-
#14500
1-
b0000011111001100011111001000100010111011110011100010001111001011 .
b10011 3
b000010010111010101101101000100100 4
#15000
0-
#15500
1-
b0000100101110101011011010001001001011101111001110001000111100101 .
b10010 3
b000010100100100111100101010101110 4
#16000
0-
#16500
1-
b0000101001001001111001010101011100101110111100111000100011110010 .
b10001 3
b000010101011010000100001011110011 4
#17000
0-
#17500
1-
b0000010100100100111100101010101110010111011110011100010001111001 .
b10000 3
b000010000010000110101000001000111 4
#18000
0-
#18500
1-
b0000100000100001101010000010001111001011101111001110001000111100 .
b01111 3
b000010011010000000000010110111111 4
#19000
0-
#19500
1-
b0000010000010000110101000001000111100101110111100111000100011110 .
b01110 3
b000001111001011110011000110101101 4
#20000
0-
#20500
1-
b0000001000001000011010100000100011110010111011110011100010001111 .
b01101 3
b000001101001001101100011110100100 4
#21000
0-
#21500
1-
b0000011010010011011000111101001001111001011101111001110001000111 .
b01100 3
b000010001101100011100000101101110 4
#22000
0-
#22500
1-
b0000100011011000111000001011011100111100101110111100111000100011 .
b01011 3
b000010011111101110011111001010011 4
#23000
0-
#23500
1-
b0000100111111011100111110010100110011110010111011110011100010001 .
b01010 3
b000010101000110011111110011000101 4
#24000
0-
#24500
1-
b0000101010001100111111100110001011001111001011101111001110001000 .
b01001 3
b000010101101010110101101111111110 4
#25000
0-
#25500
1-
b0000010101000110011111110011000101100111100101110111100111000100 .
b01000 3
b000010000011001001101110011001101 4
#26000
0-
#26500
1-
b0000001010100011001111111001100010110011110010111011110011100010 .
b00111 3
b000001101110000011001110100110100 4
#27000
0-
#27500
1-
b0000000101010001100111111100110001011001111001011101111001110001 .
b00110 3
b000001100011011111111110101101000 4
#28000
0-
#28500
1-
b0000011000110111111111101011010000101100111100101110111100111000 .
b00101 3
b000010001010101100101110001010000 4
#29000
0-
#29500
1-
b0000001100011011111111110101101000010110011110010111011110011100 .
b00100 3
b000001110001110100101110011110110 4
#30000
0-
#30500
1-
b0000000110001101111111111010110100001011001111001011101111001110 .
b00011 3
b000001100101011000101110101001001 4
#31000
0-
#31500
1-
b0000000011000110111111111101011010000101100111100101110111100111 .
b00010 3
b000001011111001010101110101110010 4
#32000
0-
#32500
1-
b0000010111110010101011101011100101000010110011110010111011110011 .
b00001 3
b000010001000100010000110001010101 4
#33000
0-
#33500
1-
b0000100010001000100001100010101010100001011001111001011101111001 .
b00000 3
b000010011101001101110001111000110 4
#34000
0-
#34500
1-
b0000100111010011011100011110001101010000101100111100101110111100 .
b10 2
b11111 3
b000010100111100011100111101111111 4
#35000
0-
#35500
0&
1-
10
b00 2
#36000
0-
#36500
1-
b0000000000000000000000000000000011100010001111001011101100111001 .
00
b000001011000111100101110110011100 4
#37000
0-
#37500
b00111011111110010111011001110011 $
b01110111111100101110110011100111 %
1&
b11001011101100111001111000100000 '
b00000000000000000000000000000001 )
b00111011111110010111011001110011 +
b01110111111100101110110011100111 ,
1-
b0000000000000000000000000000000001110111111100101110110011100111 .
b00111011111110010111011001110011 1
b01 2
b000111011111110010111011001110011 4
#38000
0-
#38500
1-
b0001110111111100101110110011100110111011111110010111011001110011 .
b11110 3
b001011001111101100011000110101100 4
#39000
0-
#39500
1-
b0010110011111011000110001101011001011101111111001011101100111001 .
b11101 3
b001101000111101001000111101001001 4
#40000
0-
#40500
1-
b0011010001111010010001111010010010101110111111100101110110011100 .
b11100 3
b001110000011100111011111000010111 4
#41000
0-
#41500
1-
b0001101000111101001000111101001001010111011111110010111011001110 .
b11011 3
b001010110001101101001101001000101 4
#42000
0-
#42500
1-
b0000110100011110100100011110100100101011101111111001011101100111 .
b11010 3
b001001001000110000000100001011100 4
#43000
0-
#43500
1-
b0010010010001100000001000010111000010101110111111100101110110011 .
b11001 3
b001100000100001010111101010100001 4
#44000
0-
#44500
1-
b0011000001000010101111010101000010001010111011111110010111011001 .
b11000 3
b001101100001111000011001111000011 4
#45000
0-
#45500
1-
b0011011000011110000110011110000111000101011101111111001011101100 .
b10111 3
b001110010000101111001000001010100 4
#46000
0-
#46500
1-
b0001101100001111000011001111000011100010101110111111100101110110 .
b10110 3
b001010111000010001000001101100011 4
#47000
0-
#47500
1-
b0000110110000111100001100111100001110001010111011111110010111011 .
b10101 3
b001001001100000001111110011101011 4
#48000
0-
#48500
1-
b0010010011000000011111100111010110111000101011101111111001011101 .
b10100 3
b001100000101110011111010011101000 4
#49000
0-
#49500
1-
b0011000001011100111110100111010001011100010101110111111100101110 .
b10011 3
b001101100010101100111000011100111 4
#50000
0-
#50500
1-
b0001100000101110011111010011101000101110001010111011111110010111 .
b10010 3
b001010100001001111111001110101101 4
#51000
0-
#51500
1-
b0010101000010011111110011101011010010111000101011101111111001011 .
b10001 3
b001100110000011010111000001001001 4
#52000
0-
#52500
1-
b0011001100000110101110000010010011001011100010101110111111100101 .
b10000 3
b001101111000000000010111010010111 4
#53000
0-
#53500
1-
b0011011110000000000101110100101111100101110001010111011111110010 .
b01111 3
b001110011011110011000110110111110 4
#54000
0-
#54500
1-
b0001101111000000000010111010010111110010111000101011101111111001 .
b01110 3
b001010111101110011000001000011000 4
#55000
0-
#55500
1-
b0010101111011100110000010000110001111001011100010101110111111100 .
b01101 3
b001100111110101100011011101111111 4
#56000
0-
#56500
1-
b0001010111101110011000001000011000111100101110001010111011111110 .
b01100 3
b001010001111001111101011011111001 4
#57000
0-
#57500
1-
b0000101011110111001100000100001100011110010111000101011101111111 .
b01011 3
b001000110111100001010011010110110 4
#58000
0-
#58500
1-
b0010001101111000010100110101101100001111001011100010101110111111 .
b01010 3
b001011111011100011100100111001110 4
#59000
0-
#59500
1-
b0010111110111000111001001110011100000111100101110001010111011111 .
b01001 3
b001101011101100100101101101011010 4
#60000
0-
#60500
1-
b0011010111011001001011011010110100000011110010111000101011101111 .
b01000 3
b001110001110100101010010000100000 4
#61000
0-
#61500
1-
b0011100011101001010100100001000000000001111001011100010101110111 .
b00111 3
b001110100111000101100100010000011 4
#62000
0-
#62500
1-
b0011101001110001011001000100000110000000111100101110001010111011 .
b00110 3
b001110110011010101101101010110100 4
#63000
0-
#63500
1-
b0011101100110101011011010101101001000000011110010111000101011101 .
b00101 3
b001110111001011101110001111001101 4
#64000
0-
#64500
1-
b0011101110010111011100011110011010100000001111001011100010101110 .
b00100 3
b001110111100100001110100001011001 4
#65000
0-
#65500
1-
b0001110111001011101110001111001101010000000111100101110001010111 .
b00011 3
b001011001110001010010111101100110 4
#66000
0-
#66500
1-
b0010110011100010100101111011001100101000000011110010111000101011 .
b00010 3
b001101000110111000000111000100110 4
#67000
0-
#67500
1-
b0011010001101110000001110001001100010100000001111001011100010101 .
b00001 3
b001110000011001110111110110000110 4
#68000
0-
#68500
1-
b0011100000110011101111101100001100001010000000111100101110001010 .
b00000 3
b001110100001011010011010100110110 4
#69000
0-
#69500
1-
b0001110000011001110111110110000110000101000000011110010111000101 .
b10 2
b11111 3
b001011000000100110101010111010100 4
#70000
0-
#70500
0&
1-
10
b00 2
#71000
0-
#71500
1-
b0000000000000000000000000000000001110111111100101110110011100111 .
00
b000111011111110010111011001110011 4
#72000
0-
#72500
b11101111111001011101100111001111 $
b11011111110010111011001110011110 %
1&
b00101110110011100111100010000000 '
b00000000000000000000000000000010 )
b11101111111001011101100111001111 +
b11011111110010111011001110011110 ,
1-
b0000000000000000000000000000000011011111110010111011001110011110 .
b11101111111001011101100111001111 1
b01 2
b011101111111001011101100111001111 4
#73000
0-
#73500
1-
b0000000000000000000000000000000001101111111001011101100111001111 .
b11110 3
#74000
0-
#74500
1-
b0111011111110010111011001110011110110111111100101110110011100111 .
b11101 3
b101100111110110001100011010110110 4
#75000
0-
#75500
1-
b1011001111101100011000110101101101011011111110010111011001110011 .
b11100 3
b110100011110100100011110100101010 4
#76000
0-
#76500
1-
b1101000111101001000111101001010100101101111111001011101100111001 .
b11011 3
b111000001110011101111100001100100 4
#77000
0-
#77500
1-
b1110000011100111011111000011001000010110111111100101110110011100 .
b11010 3
b111010000110011010101011000000001 4
#78000
0-
#78500
1-
b0111000001110011101111100001100100001011011111110010111011001110 .
b11001 3
b101100000010110011001011111101000 4
#79000
0-
#79500
1-
b0011100000111001110111110000110010000101101111111001011101100111 .
b11000 3
b100101000000111111011100011011011 4
#80000
0-
#80500
1-
b1001010000001111110111000110110111000010110111111100101110110011 .
b10111 3
b110000011111101011011011000111100 4
#81000
0-
#81500
1-
b1100000111111010110110110001111001100001011011111110010111011001 .
b10110 3
b110110001111000001011010011101101 4
#82000
0-
#82500
1-
b1101100011110000010110100111011010110000101101111111001011101100 .
b10101 3
b111001000110101100011010001000101 4
#83000
0-
#83500
1-
b0110110001111000001011010011101101011000010110111111100101110110 .
b10100 3
b101011100010111100000011100001010 4
#84000
0-
#84500
1-
b0011011000111100000101101001110110101100001011011111110010111011 .
b10011 3
b100100110001000011111000001101100 4
#85000
0-
#85500
1-
b1001001100010000111110000011011001010110000101101111111001011101 .
b10010 3
b110000010111101101101001000000101 4
#86000
0-
#86500
1-
b1100000101111011011010010000001010101011000010110111111100101110 .
b10001 3
b110110001011000010100001011010001 4
#87000
0-
#87500
1-
b0110000010111101101101001000000101010101100001011011111110010111 .
b10000 3
b101010000101000111000111001010000 4
#88000
0-
#88500
1-
b1010100001010001110001110010100000101010110000101101111111001011 .
b01111 3
b110011000001101111010000011110111 4
#89000
0-
#89500
1-
b1100110000011011110100000111101110010101011000010110111111100101 .
b01110 3
b110111100000000011010101001001010 4
#90000
0-
#90500
1-
b1101111000000000110101010010010101001010101100001011011111110010 .
b01101 3
b111001101111001101010111011110100 4
#91000
0-
#91500
1-
b0110111100000000011010101001001010100101010110000101101111111001 .
b01100 3
b101011110111001100100010001100001 4
#92000
0-
#92500
1-
b1010111101110011001000100011000011010010101011000010110111111100 .
b01011 3
b110011111010110001111101111111111 4
#93000
0-
#93500
1-
b0101011110111001100100010001100001101001010101100001011011111110 .
b01010 3
b101000111100111110110101011100111 4
#94000
0-
#94500
1-
b0010101111011100110010001000110000110100101010110000101101111111 .
b01001 3
b100011011110000101010001001011011 4
#95000
0-
#95500
1-
b1000110111100001010100010010110110011010010101011000010110111111 .
b01000 3
b101111101110001110010101011111100 4
#96000
0-
#96500
1-
b1011111011100011100101010111111001001101001010101100001011011111 .
b00111 3
b110101110110010010110111101001101 4
#97000
0-
#97500
1-
b1101011101100100101101111010011010100110100101010110000101101111 .
b00110 3
b111000111010010101001000101110101 4
#98000
0-
#98500
1-
b1110001110100101010010001011101011010011010010101011000010110111 .
b00101 3
b111010011100010110010001010001001 4
#99000
0-
#99500
1-
b1110100111000101100100010100010011101001101001010101100001011011 .
b00100 3
b111011001101010110110101100010011 4
#100000
0-
#100500
1-
b1110110011010101101101011000100111110100110100101010110000101101 .
b00011 3
b111011100101110111000111101011000 4
#101000
0-
#101500
1-
b1110111001011101110001111010110001111010011010010101011000010110 .
b00010 3
b111011110010000111010000101111011 4
#102000
0-
#102500
1-
b0111011100101110111000111101011000111101001101001010101100001011 .
b00001 3
b101100111000101001011110110100101 4
#103000
0-
#103500
1-
b1011001110001010010111101101001010011110100110100101010110000101 .
b00000 3
b110100011011100000011100010100001 4
#104000
0-
#104500
1-
b1101000110111000000111000101000011001111010011010010101011000010 .
b10 2
b11111 3
b111000001100111011111011000011111 4
#105000
0-
#105500
0&
1-
10
b00 2
#106000
0-
#106500
1-
b0000000000000000000000000000000011011111110010111011001110011110 .
00
b011101111111001011101100111001111 4
#107000
0-
#107500
b01000000000101110110011100111100 $
b10000000001011101100111001111000 %
1&
b10111011001110011110001000000000 '
b00000000000000000000000000000011 )
b01000000000101110110011100111100 +
b10000000001011101100111001111000 ,
1-
b0000000000000000000000000000000010000000001011101100111001111000 .
b01000000000101110110011100111100 1
b01 2
b001000000000101110110011100111100 4
#108000
0-
#108500
1-
b0000000000000000000000000000000001000000000101110110011100111100 .
b11110 3
#109000
0-
#109500
1-
b0000000000000000000000000000000000100000000010111011001110011110 .
b11101 3
#110000
0-
#110500
1-
b0000000000000000000000000000000000010000000001011101100111001111 .
b11100 3
#111000
0-
#111500
1-
b0010000000001011101100111001111000001000000000101110110011100111 .
b11011 3
b001100000001000110001101011011010 4
#112000
0-
#112500
1-
b0011000000010001100011010110110100000100000000010111011001110011 .
b11010 3
b001110000001010001111010010101001 4
#113000
0-
#113500
1-
b0011100000010100011110100101010010000010000000001011101100111001 .
b11001 3
b001111000001010111110000110010000 4
#114000
0-
#114500
1-
b0011110000010101111100001100100001000001000000000101110110011100 .
b11000 3
b001111100001011010101100000000100 4
#115000
0-
#115500
1-
b0001111000001010111110000110010000100000100000000010111011001110 .
b10111 3
b001011110001000100101111110100000 4
#116000
0-
#116500
1-
b0000111100000101011111000011001000010000010000000001011101100111 .
b10110 3
b001001111000111001110001101101110 4
#117000
0-
#117500
1-
b0010011110001110011100011011011100001000001000000000101110110011 .
b10101 3
b001100111101001011101100011110011 4
#118000
0-
#118500
1-
b0011001111010010111011000111100110000100000100000000010111011001 .
b10100 3
b001110011111010100101001110110101 4
#119000
0-
#119500
1-
b0011100111110101001010011101101011000010000010000000001011101100 .
b10011 3
b001111010000011001001000100010110 4
#120000
0-
#120500
1-
b0001110011111010100101001110110101100001000001000000000101110110 .
b10010 3
b001011101000100011111110000101001 4
#121000
0-
#121500
1-
b0000111001111101010010100111011010110000100000100000000010111011 .
b10001 3
b001001110100101001011000110110010 4
#122000
0-
#122500
1-
b0010011101001010010110001101100101011000010000010000000001011101 .
b10000 3
b001100111011000011100000000010101 4
#123000
0-
#123500
1-
b0011001110110000111000000000101010101100001000001000000000101110 .
b01111 3
b001110011110010000100011101000110 4
#124000
0-
#124500
1-
b0001100111011000011100000000010101010110000100000100000000010111 .
b01110 3
b001011001111011111101011101000001 4
#125000
0-
#125500
1-
b0010110011110111111010111010000010101011000010000010000000001011 .
b01101 3
b001101101000011110101001011011100 4
#126000
0-
#126500
1-
b0011011010000111101010010110111001010101100001000001000000000101 .
b01100 3
b001110110100111110001000010101010 4
#127000
0-
#127500
1-
b0011101101001111100010000101010100101010110000100000100000000010 .
b01011 3
b001111011011001101110111110010001 4
#128000
0-
#128500
1-
b0001110110100111110001000010101010010101011000010000010000000001 .
b01010 3
b001011101101111110010101101100110 4
#129000
0-
#129500
1-
b0010111011011111100101011011001101001010101100001000001000000000 .
b01001 3
b001101110111101101111110011101111 4
#130000
0-
#130500
1-
b0001011101101111110010101101100110100101010110000100000100000000 .
b01000 3
b001010111100001110011001000010101 4
#131000
0-
#131500
1-
b0000101110110111111001010110110011010010101011000010000010000000 .
b00111 3
b001001011110011110100110010101000 4
#132000
0-
#132500
1-
b0000010111011011111100101011011001101001010101100001000001000000 .
b00110 3
b001000101111100110101100111110010 4
#133000
0-
#133500
1-
b0000001011101101111110010101101100110100101010110000100000100000 .
b00101 3
b001000011000001010110000010010111 4
#134000
0-
#134500
1-
b0000000101110110111111001010110110011010010101011000010000010000 .
b00100 3
b001000001100011100110001111101001 4
#135000
0-
#135500
1-
b0000000010111011011111100101011011001101001010101100001000001000 .
b00011 3
b001000000110100101110010110010010 4
#136000
0-
#136500
1-
b0000000001011101101111110010101101100110100101010110000100000100 .
b00010 3
b001000000011101010010011001100111 4
#137000
0-
#137500
1-
b0000000000101110110111111001010110110011010010101011000010000010 .
b00001 3
b001000000010001100100011011010001 4
#138000
0-
#138500
1-
b0000000000010111011011111100101011011001101001010101100001000001 .
b00000 3
b001000000001011101101011100000110 4
#139000
0-
#139500
1-
b0010000000010111011010111000001101101100110100101010110000100000 .
b10 2
b11111 3
b001100000001011101101001010111111 4
#140000
0-
#140500
0&
1-
10
b00 2
#141000
0-
#141500
1-
b0000000000000000000000000000000010000000001011101100111001111000 .
00
b001000000000101110110011100111100 4
#142000
0-
#142500
b11111111110111011001110011110001 $
b00000000001110110011100111100010 %
1&
b11101100111001111000100000000000 '
b00000000000000000000000000000100 )
b11111111110111011001110011110001 +
b00000000001110110011100111100010 ,
1-
b0000000000000000000000000000000000000000001110110011100111100010 .
b11111111110111011001110011110001 1
b01 2
b011111111110111011001110011110001 4
#143000
0-
#143500
1-
b0000000000000000000000000000000000000000000111011001110011110001 .
b11110 3
#144000
0-
#144500
1-
b0111111111101110110011100111100010000000000011101100111001111000 .
b11101 3
b101111111110011000110101101101001 4
#145000
0-
#145500
1-
b0011111111110111011001110011110001000000000001110110011100111100 .
b11100 3
b100111111110101010000010000101101 4
#146000
0-
#146500
1-
b0001111111111011101100111001111000100000000000111011001110011110 .
b11011 3
b100011111110110010101000010001111 4
#147000
0-
#147500
1-
b0000111111111101110110011100111100010000000000011101100111001111 .
b11010 3
b100001111110110110111011011000000 4
#148000
0-
#148500
1-
b1000011111101101101110110110000000001000000000001110110011100111 .
b11001 3
b110000111110010110101100001010001 4
#149000
0-
#149500
1-
b1100001111100101101011000010100010000100000000000111011001110011 .
b11000 3
b111000011110000110100100100011001 4
#150000
0-
#150500
1-
b1110000111100001101001001000110011000010000000000011101100111001 .
b10111 3
b111100001101111110100000101111101 4
#151000
0-
#151500
1-
b1111000011011111101000001011111011100001000000000001110110011100 .
b10110 3
b111110000101111010011110110101111 4
#152000
0-
#152500
1-
b0111100001101111110100000101111101110000100000000000111011001110 .
b10101 3
b101111000010011010110110101010000 4
#153000
0-
#153500
1-
b0011110000110111111010000010111110111000010000000000011101100111 .
b10100 3
b100111100000101011000010100100000 4
#154000
0-
#154500
1-
b1001111000001010110000101001000001011100001000000000001110110011 .
b10011 3
b110011101111010000101111110000001 4
#155000
0-
#155500
1-
b1100111011110100001011111100000010101110000100000000000111011001 .
b10010 3
b111001110110100011100110010110001 4
#156000
0-
#156500
1-
b1110011101101000111001100101100011010111000010000000000011101100 .
b10001 3
b111100111010001101000001101001001 4
#157000
0-
#157500
1-
b0111001110110100011100110010110001101011100001000000000001110110 .
b10000 3
b101110011100100100001000000011101 4
#158000
0-
#158500
1-
b0011100111011010001110011001011000110101110000100000000000111011 .
b01111 3
b100111001101101111101011010000111 4
#159000
0-
#159500
1-
b1001110011011011111010110100001110011010111000010000000000011101 .
b01110 3
b110011100101110011000100000110100 4
#160000
0-
#160500
1-
b1100111001011100110001000001101001001101011100001000000000001110 .
b01101 3
b111001110001110100110000100001011 4
#161000
0-
#161500
1-
b0110011100101110011000100000110100100110101110000100000000000111 .
b01100 3
b101100111000010111111111011111110 4
#162000
0-
#162500
1-
b1011001110000101111111110111111100010011010111000010000000000011 .
b01011 3
b110110011011000111001110001110000 4
#163000
0-
#163500
1-
b1101100110110001110011100011100000001001101011100001000000000001 .
b01010 3
b111011001100011110110101100101001 4
#164000
0-
#164500
1-
b1110110011000111101101011001010010000100110101110000100000000000 .
b01001 3
b111101100101001010101001010000101 4
#165000
0-
#165500
1-
b0111011001100011110110101100101001000010011010111000010000000000 .
b01000 3
b101110110010000010111011110111011 4
#166000
0-
#166500
1-
b0011101100110001111011010110010100100001001101011100001000000000 .
b00111 3
b100111011000011111000101001010110 4
#167000
0-
#167500
1-
b0001110110011000111101101011001010010000100110101110000100000000 .
b00110 3
b100011101011101101001001110100011 4
#168000
0-
#168500
1-
b0000111011001100011110110101100101001000010011010111000010000000 .
b00101 3
b100001110101010100001100001001010 4
#169000
0-
#169500
1-
b0000011101100110001111011010110010100100001001101011100001000000 .
b00100 3
b100000111010000111101101010011101 4
#170000
0-
#170500
1-
b0000001110110011000111101101011001010010000100110101110000100000 .
b00011 3
b100000011100100001011101111000111 4
#171000
0-
#171500
1-
b0000000111011001100011110110101100101001000010011010111000010000 .
b00010 3
b100000001101101110010110001011100 4
#172000
0-
#172500
1-
b0000000011101100110001111011010110010100100001001101011100001000 .
b00001 3
b100000000110010100110010010100110 4
#173000
0-
#173500
1-
b0000000001110110011000111101101011001010010000100110101110000100 .
b00000 3
b100000000010101000000000011001011 4
#174000
0-
#174500
1-
b0000000000111011001100011110110101100101001000010011010111000010 .
b10 2
b11111 3
b100000000000110001100111011011110 4
#175000
0-
#175500
0&
1-
10
b00 2
#176000
0-
#176500
1-
b0000000000000000000000000000000000000000001110110011100111100010 .
00
b011111111110111011001110011110001 4
#177000
0-
#177500
b11111111111101100111001111000100 $
b11111111111011001110011110001000 %
1&
b10110011100111100010000000000000 '
b00000000000000000000000000000101 )
b11111111111101100111001111000100 +
b11111111111011001110011110001000 ,
1-
b0000000000000000000000000000000011111111111011001110011110001000 .
b11111111111101100111001111000100 1
b01 2
b011111111111101100111001111000100 4
#178000
0-
#178500
1-
b0000000000000000000000000000000001111111111101100111001111000100 .
b11110 3
#179000
0-
#179500
1-
b0000000000000000000000000000000000111111111110110011100111100010 .
b11101 3
#180000
0-
#180500
1-
b0000000000000000000000000000000000011111111111011001110011110001 .
b11100 3
#181000
0-
#181500
1-
b0111111111111011001110011110001000001111111111101100111001111000 .
b11011 3
b101111111111100011010110110100110 4
#182000
0-
#182500
1-
b0011111111111101100111001111000100000111111111110110011100111100 .
b11010 3
b100111111111101000001000010110101 4
#183000
0-
#183500
1-
b0001111111111110110011100111100010000011111111111011001110011110 .
b11001 3
b100011111111101010100001000111100 4
#184000
0-
#184500
1-
b0000111111111111011001110011110001000001111111111101100111001111 .
b11000 3
b100001111111101011101101100000000 4
#185000
0-
#185500
1-
b1000011111111010111011011000000000100000111111111110110011100111 .
b10111 3
b110000111111100010110000101000100 4
#186000
0-
#186500
1-
b1100001111111000101100001010001000010000011111111111011001110011 .
b10110 3
b111000011111011110010010001100110 4
#187000
0-
#187500
1-
b1110000111110111100100100011001100001000001111111111101100111001 .
b10101 3
b111100001111011100000010111110111 4
#188000
0-
#188500
1-
b1111000011110111000000101111101110000100000111111111110110011100 .
b10100 3
b111110000111011010111011010111111 4
#189000
0-
#189500
1-
b0111100001111011100000010111110111000010000011111111111011001110 .
b10011 3
b101111000011100011111010101000001 4
#190000
0-
#190500
1-
b0011110000111101110000001011111011100001000001111111111101100111 .
b10010 3
b100111100001101000011010010000010 4
#191000
0-
#191500
1-
b1001111000011010000110100100000101110000100000111111111110110011 .
b10001 3
b110011110000100001000111000000101 4
#192000
0-
#192500
1-
b1100111100001000010001110000001010111000010000011111111111011001 .
b10000 3
b111001110111111101011101011000110 4
#193000
0-
#193500
1-
b1110011101111111010111010110001101011100001000001111111111101100 .
b01111 3
b111100111011101011101000100100111 4
#194000
0-
#194500
1-
b0111001110111111101011101011000110101110000100000111111111110110 .
b01110 3
b101110011101101100010001001110101 4
#195000
0-
#195500
1-
b0011100111011111110101110101100011010111000010000011111111111011 .
b01101 3
b100111001110101100100101100011100 4
#196000
0-
#196500
1-
b1001110011101011001001011000111001101011100001000001111111111101 .
b01100 3
b110011100111000011001100101010010 4
#197000
0-
#197500
1-
b1100111001110000110011001010100100110101110000100000111111111110 .
b01011 3
b111001110011001110100000001101101 4
#198000
0-
#198500
1-
b0110011100111000011001100101010010011010111000010000011111111111 .
b01010 3
b101100111001011101101101000011000 4
#199000
0-
#199500
1-
b1011001110010111011011010000110001001101011100001000001111111111 .
b01001 3
b110110011100011011110000011010000 4
#200000
0-
#200500
1-
b1101100111000110111100000110100000100110101110000100000111111111 .
b01000 3
b111011001101111010110010000101100 4
#201000
0-
#201500
1-
b1110110011011110101100100001011000010011010111000010000011111111 .
b00111 3
b111101100110101010010010111011010 4
#202000
0-
#202500
1-
b1111011001101010100100101110110100001001101011100001000001111111 .
b00110 3
b111110110011000010000011010110001 4
#203000
0-
#203500
1-
b1111101100110000100000110101100010000100110101110000100000111111 .
b00101 3
b111111011001001101111011100011100 4
#204000
0-
#204500
1-
b1111110110010011011110111000111001000010011010111000010000011111 .
b00100 3
b111111101100010011110111101010010 4
#205000
0-
#205500
1-
b1111111011000100111101111010100100100001001101011100001000001111 .
b00011 3
b111111110101110110110101101101101 4
#206000
0-
#206500
1-
b1111111101011101101101011011011010010000100110101110000100000111 .
b00010 3
b111111111010101000010100101111010 4
#207000
0-
#207500
1-
b1111111110101010000101001011110101001000010011010111000010000011 .
b00001 3
b111111111101000001000100010000001 4
#208000
0-
#208500
1-
b1111111111010000010001000100000010100100001001101011100001000001 .
b00000 3
b111111111110001101011100000000100 4
#209000
0-
#209500
1-
b1111111111100011010111000000001001010010000100110101110000100000 .
b10 2
b11111 3
b111111111110110011100111111000110 4
#210000
0-
#210500
0&
1-
10
b00 2
#211000
0-
#211500
1-
b0000000000000000000000000000000011111111111011001110011110001000 .
00
b011111111111101100111001111000100 4
#212000
0-
#212500
b11111111110110011100111100010000 $
b00000000001100111001111000100000 %
1&
b11001110011110001000000000000000 '
b00000000000000000000000000000110 )
b11111111110110011100111100010000 +
b00000000001100111001111000100000 ,
1-
b0000000000000000000000000000000000000000001100111001111000100000 .
b11111111110110011100111100010000 1
b01 2
b011111111110110011100111100010000 4
#213000
0-
#213500
1-
b0000000000000000000000000000000000000000000110011100111100010000 .
b11110 3
#214000
0-
#214500
1-
b0000000000000000000000000000000000000000000011001110011110001000 .
b11101 3
#215000
0-
#215500
1-
b0000000000000000000000000000000000000000000001100111001111000100 .
b11100 3
#216000
0-
#216500
1-
b0000000000000000000000000000000000000000000000110011100111100010 .
b11011 3
#217000
0-
#217500
1-
b0000000000000000000000000000000000000000000000011001110011110001 .
b11010 3
#218000
0-
#218500
1-
b0111111111101100111001111000100000000000000000001100111001111000 .
b11001 3
b101111111110001101011011010011000 4
#219000
0-
#219500
1-
b0011111111110110011100111100010000000000000000000110011100111100 .
b11000 3
b100111111110100000100001011010100 4
#220000
0-
#220500
1-
b0001111111111011001110011110001000000000000000000011001110011110 .
b10111 3
b100011111110101010000100011110010 4
#221000
0-
#221500
1-
b0000111111111101100111001111000100000000000000000001100111001111 .
b10110 3
b100001111110101110110110000000001 4
#222000
0-
#222500
1-
b1000011111101011101101100000000010000000000000000000110011100111 .
b10101 3
b110000111110001011000010100010000 4
#223000
0-
