build/verilate/Testbench.vcd
$version Generated by VerilatedVcd $end
$timescale 10ps $end
 $scope module $rootio $end
 $upscope $end
 $scope module Testbench $end
  $var wire 1 - clk $end
  $var wire 1 # rst $end
  $var wire 32 $ multiplicand [31:0] $end
  $var wire 32 % multiplier [31:0] $end
  $var wire 1 & start $end
  $var wire 64 . product [63:0] $end
  $var wire 1 0 finish $end
  $var wire 32 4 i [31:0] $end
  $var wire 32 ' seed [31:0] $end
  $var wire 1 * error $end
  $scope module judge $end
   $var wire 1 - clk $end
   $var wire 1 ( rstn $end
   $var wire 32 $ multiplicand [31:0] $end
   $var wire 32 % multiplier [31:0] $end
   $var wire 1 & start $end
   $var wire 64 . product [63:0] $end
   $var wire 1 0 finish $end
   $var wire 1 * error $end
   $var wire 32 + multiplicand_reg [31:0] $end
   $var wire 32 , multiplier_reg [31:0] $end
  $upscope $end
  $scope module mul $end
   $var wire 32 5 LEN [31:0] $end
   $var wire 1 - clk $end
   $var wire 1 # rst $end
   $var wire 32 $ multiplicand [31:0] $end
   $var wire 32 % multiplier [31:0] $end
   $var wire 1 & start $end
   $var wire 64 . product [63:0] $end
   $var wire 1 0 finish $end
   $var wire 32 6 PRODUCT_LEN [31:0] $end
   $var wire 32 1 multiplicand_reg [31:0] $end
   $var wire 64 . product_reg [63:0] $end
   $var wire 32 7 CNT_LEN [31:0] $end
   $var wire 32 8 CNT_NUM [31:0] $end
   $var wire 2 2 fsm_state_reg [1:0] $end
   $var wire 5 3 work_cnt [4:0] $end
   $var wire 1 0 finish_reg $end
  $upscope $end
  $scope module unnamedblk1 $end
   $var wire 32 ) i [31:0] $end
  $upscope $end
 $upscope $end
$enddefinitions $end


#0
1#
b00000000000000000000000000000000 $
b00000000000000000000000000000000 %
0&
b00000000000000000000000000000000 '
0(
b00000000000000000000000000000000 )
0*
b00000000000000000000000000000000 +
b00000000000000000000000000000000 ,
0-
b0000000000000000000000000000000000000000000000000000000000000000 .
00
b00000000000000000000000000000000 1
b00 2
b00000 3
b00000000000000000000000000000000 4
b00000000000000000000000000100000 5
b00000000000000000000000001000000 6
b00000000000000000000000000000101 7
b00000000000000000000000000011111 8
#500
1-
b11111 3
#1000
0-
#1500
1-
#2000
0#
b00001011000111100101110110011100 $
b11100010001111001011101100111001 %
1&
b11110010111011001110011110001000 '
1(
0-
#2500
b00001011000111100101110110011100 +
b11100010001111001011101100111001 ,
1-
b0000000000000000000000000000000011100010001111001011101100111001 .
b00001011000111100101110110011100 1
b01 2
#3000
0-
#3500
1-
b0000010110001111001011101100111001110001000111100101110110011100 .
b11110 3
#4000
0-
#4500
1-
b0000001011000111100101110110011100111000100011110010111011001110 .
b11101 3
#5000
0-
#5500
1-
b0000000101100011110010111011001110011100010001111001011101100111 .
b11100 3
#6000
0-
#6500
1-
b0000011001000001000101001010011111001110001000111100101110110011 .
b11011 3
#7000
0-
#7500
1-
b0000100010101111101110010010000111100111000100011110010111011001 .
b11010 3
#8000
0-
#8500
1-
b0000100111100111000010110101111011110011100010001111001011101100 .
b11001 3
#9000
0-
#9500
1-
b0000010011110011100001011010111101111001110001000111100101110110 .
b11000 3
#10000
0-
#10500
1-
b0000001001111001110000101101011110111100111000100011110010111011 .
b10111 3
#11000
0-
#11500
1-
b0000011011001100000100000011100111011110011100010001111001011101 .
b10110 3
#12000
0-
#12500
1-
b0000100011110101001101101110101011101111001110001000111100101110 .
b10101 3
#13000
0-
#13500
1-
b0000010001111010100110110111010101110111100111000100011110010111 .
b10100 3
#14000
0-
#14500
1-
b0000011111001100011111001000100010111011110011100010001111001011 .
b10011 3
#15000
0-
#15500
1-
b0000100101110101011011010001001001011101111001110001000111100101 .
b10010 3
#16000
0-
#16500
1-
b0000101001001001111001010101011100101110111100111000100011110010 .
b10001 3
#17000
0-
#17500
1-
b0000010100100100111100101010101110010111011110011100010001111001 .
b10000 3
#18000
0-
#18500
1-
b0000100000100001101010000010001111001011101111001110001000111100 .
b01111 3
#19000
0-
#19500
1-
b0000010000010000110101000001000111100101110111100111000100011110 .
b01110 3
#20000
0-
#20500
1-
b0000001000001000011010100000100011110010111011110011100010001111 .
b01101 3
#21000
0-
#21500
1-
b0000011010010011011000111101001001111001011101111001110001000111 .
b01100 3
#22000
0-
#22500
1-
b0000100011011000111000001011011100111100101110111100111000100011 .
b01011 3
#23000
0-
#23500
1-
b0000100111111011100111110010100110011110010111011110011100010001 .
b01010 3
#24000
0-
#24500
1-
b0000101010001100111111100110001011001111001011101111001110001000 .
b01001 3
#25000
0-
#25500
1-
b0000010101000110011111110011000101100111100101110111100111000100 .
b01000 3
#26000
0-
#26500
1-
b0000001010100011001111111001100010110011110010111011110011100010 .
b00111 3
#27000
0-
#27500
1-
b0000000101010001100111111100110001011001111001011101111001110001 .
b00110 3
#28000
0-
#28500
1-
b0000011000110111111111101011010000101100111100101110111100111000 .
b00101 3
#29000
0-
#29500
1-
b0000001100011011111111110101101000010110011110010111011110011100 .
b00100 3
#30000
0-
#30500
1-
b0000000110001101111111111010110100001011001111001011101111001110 .
b00011 3
#31000
0-
#31500
1-
b0000000011000110111111111101011010000101100111100101110111100111 .
b00010 3
#32000
0-
#32500
1-
b0000010111110010101011101011100101000010110011110010111011110011 .
b00001 3
#33000
0-
#33500
1-
b0000100010001000100001100010101010100001011001111001011101111001 .
b00000 3
#34000
0-
#34500
1-
b0000100111010011011100011110001101010000101100111100101110111100 .
b10 2
b11111 3
#35000
0-
#35500
0&
1-
10
b00 2
#36000
0-
#36500
1-
b0000000000000000000000000000000011100010001111001011101100111001 .
00
#37000
0-
#37500
b00111011111110010111011001110011 $
b01110111111100101110110011100111 %
1&
b11001011101100111001111000100000 '
b00000000000000000000000000000001 )
b00111011111110010111011001110011 +
b01110111111100101110110011100111 ,
1-
b0000000000000000000000000000000001110111111100101110110011100111 .
b00111011111110010111011001110011 1
b01 2
#38000
0-
#38500
1-
b0001110111111100101110110011100110111011111110010111011001110011 .
b11110 3
#39000
0-
#39500
1-
b0010110011111011000110001101011001011101111111001011101100111001 .
b11101 3
#40000
0-
#40500
1-
b0011010001111010010001111010010010101110111111100101110110011100 .
b11100 3
#41000
0-
#41500
1-
b0001101000111101001000111101001001010111011111110010111011001110 .
b11011 3
#42000
0-
#42500
1-
b0000110100011110100100011110100100101011101111111001011101100111 .
b11010 3
#43000
0-
#43500
1-
b0010010010001100000001000010111000010101110111111100101110110011 .
b11001 3
#44000
0-
#44500
1-
b0011000001000010101111010101000010001010111011111110010111011001 .
b11000 3
#45000
0-
#45500
1-
b0011011000011110000110011110000111000101011101111111001011101100 .
b10111 3
#46000
0-
#46500
1-
b0001101100001111000011001111000011100010101110111111100101110110 .
b10110 3
#47000
0-
#47500
1-
b0000110110000111100001100111100001110001010111011111110010111011 .
b10101 3
#48000
0-
#48500
1-
b0010010011000000011111100111010110111000101011101111111001011101 .
b10100 3
#49000
0-
#49500
1-
b0011000001011100111110100111010001011100010101110111111100101110 .
b10011 3
#50000
0-
#50500
1-
b0001100000101110011111010011101000101110001010111011111110010111 .
b10010 3
#51000
0-
#51500
1-
b0010101000010011111110011101011010010111000101011101111111001011 .
b10001 3
#52000
0-
#52500
1-
b0011001100000110101110000010010011001011100010101110111111100101 .
b10000 3
#53000
0-
#53500
1-
b0011011110000000000101110100101111100101110001010111011111110010 .
b01111 3
#54000
0-
#54500
1-
b0001101111000000000010111010010111110010111000101011101111111001 .
b01110 3
#55000
0-
#55500
1-
b0010101111011100110000010000110001111001011100010101110111111100 .
b01101 3
#56000
0-
#56500
1-
b0001010111101110011000001000011000111100101110001010111011111110 .
b01100 3
#57000
0-
#57500
1-
b0000101011110111001100000100001100011110010111000101011101111111 .
b01011 3
#58000
0-
#58500
1-
b0010001101111000010100110101101100001111001011100010101110111111 .
b01010 3
#59000
0-
#59500
1-
b0010111110111000111001001110011100000111100101110001010111011111 .
b01001 3
#60000
0-
#60500
1-
b0011010111011001001011011010110100000011110010111000101011101111 .
b01000 3
#61000
0-
#61500
1-
b0011100011101001010100100001000000000001111001011100010101110111 .
b00111 3
#62000
0-
#62500
1-
b0011101001110001011001000100000110000000111100101110001010111011 .
b00110 3
#63000
0-
#63500
1-
b0011101100110101011011010101101001000000011110010111000101011101 .
b00101 3
#64000
0-
#64500
1-
b0011101110010111011100011110011010100000001111001011100010101110 .
b00100 3
#65000
0-
#65500
1-
b0001110111001011101110001111001101010000000111100101110001010111 .
b00011 3
#66000
0-
#66500
1-
b0010110011100010100101111011001100101000000011110010111000101011 .
b00010 3
#67000
0-
#67500
1-
b0011010001101110000001110001001100010100000001111001011100010101 .
b00001 3
#68000
0-
#68500
1-
b0011100000110011101111101100001100001010000000111100101110001010 .
b00000 3
#69000
0-
#69500
1-
b0001110000011001110111110110000110000101000000011110010111000101 .
b10 2
b11111 3
#70000
0-
#70500
0&
1-
10
b00 2
#71000
0-
#71500
1-
b0000000000000000000000000000000001110111111100101110110011100111 .
00
#72000
0-
#72500
b11101111111001011101100111001111 $
b11011111110010111011001110011110 %
1&
b00101110110011100111100010000000 '
b00000000000000000000000000000010 )
b11101111111001011101100111001111 +
b11011111110010111011001110011110 ,
1-
b0000000000000000000000000000000011011111110010111011001110011110 .
b11101111111001011101100111001111 1
b01 2
#73000
0-
#73500
1-
b0000000000000000000000000000000001101111111001011101100111001111 .
b11110 3
#74000
0-
#74500
1-
b0111011111110010111011001110011110110111111100101110110011100111 .
b11101 3
#75000
0-
#75500
1-
b0011001111101100011000110101101101011011111110010111011001110011 .
b11100 3
#76000
0-
#76500
1-
b0001000111101001000111101001010100101101111111001011101100111001 .
b11011 3
#77000
0-
#77500
1-
b0000000011100111011111000011001000010110111111100101110110011100 .
b11010 3
#78000
0-
#78500
1-
b0000000001110011101111100001100100001011011111110010111011001110 .
b11001 3
#79000
0-
#79500
1-
b0000000000111001110111110000110010000101101111111001011101100111 .
b11000 3
#80000
0-
#80500
1-
b0111100000001111110111000110110111000010110111111100101110110011 .
b10111 3
#81000
0-
#81500
1-
b0011001111111010110110110001111001100001011011111110010111011001 .
b10110 3
#82000
0-
#82500
1-
b0001000111110000010110100111011010110000101101111111001011101100 .
b10101 3
#83000
0-
#83500
1-
b0000100011111000001011010011101101011000010110111111100101110110 .
b10100 3
#84000
0-
#84500
1-
b0000010001111100000101101001110110101100001011011111110010111011 .
b10011 3
#85000
0-
#85500
1-
b0111101000110000111110000011011001010110000101101111111001011101 .
b10010 3
#86000
0-
#86500
1-
b0011010100001011011010010000001010101011000010110111111100101110 .
b10001 3
#87000
0-
#87500
1-
b0001101010000101101101001000000101010101100001011011111110010111 .
b10000 3
#88000
0-
#88500
1-
b0000010100110101110001110010100000101010110000101101111111001011 .
b01111 3
#89000
0-
#89500
1-
b0111101010001101110100000111101110010101011000010110111111100101 .
b01110 3
#90000
0-
#90500
1-
b0011010100111001110101010010010101001010101100001011011111110010 .
b01101 3
#91000
0-
#91500
1-
b0001101010011100111010101001001010100101010110000101101111111001 .
b01100 3
#92000
0-
#92500
1-
b0000010101000001011000100011000011010010101011000010110111111100 .
b01011 3
#93000
0-
#93500
1-
b0000001010100000101100010001100001101001010101100001011011111110 .
b01010 3
#94000
0-
#94500
1-
b0000000101010000010110001000110000110100101010110000101101111111 .
b01001 3
#95000
0-
#95500
1-
b0111100010011011000110010010110110011010010101011000010110111111 .
b01000 3
#96000
0-
#96500
1-
b0011010001000000011110010111111001001101001010101100001011011111 .
b00111 3
#97000
0-
#97500
1-
b0001001000010011001010011010011010100110100101010110000101101111 .
b00110 3
#98000
0-
#98500
1-
b0000000011111100100000011011101011010011010010101011000010110111 .
b00101 3
#99000
0-
#99500
1-
b0111100001110001001011011100010011101001101001010101100001011011 .
b00100 3
#100000
0-
#100500
1-
b0011010000101011100000111100100111110100110100101010110000101101 .
b00011 3
#101000
0-
#101500
1-
b0001001000001000101011101100110001111010011010010101011000010110 .
b00010 3
#102000
0-
#102500
1-
b0000100100000100010101110110011000111101001101001010101100001011 .
b00001 3
#103000
0-
#103500
1-
b0111110001110101000110001001101010011110100110100101010110000101 .
b00000 3
#104000
0-
#104500
1-
b0011011000101101011110010011010011001111010011010010101011000010 .
b10 2
b11111 3
#105000
0-
#105500
0&
1-
10
b00 2
#106000
0-
#106500
1*
1-
b0000000000000000000000000000000011011111110010111011001110011110 .
00
